[gd_scene load_steps=7 format=2]

[ext_resource path="res://GFX/Background/bg_layer1.png" type="Texture" id=1]
[ext_resource path="res://Fonts/candles_.ttf" type="DynamicFontData" id=2]
[ext_resource path="res://GFX/HUD/lifes.png" type="Texture" id=3]
[ext_resource path="res://Levels/GameOver.gd" type="Script" id=4]

[sub_resource type="DynamicFont" id=1]
size = 128
use_filter = true
font_data = ExtResource( 2 )

[sub_resource type="DynamicFont" id=2]
size = 64
use_filter = true
font_data = ExtResource( 2 )

[node name="GameOver" type="Control"]
anchor_right = 1.0
anchor_bottom = 1.0
script = ExtResource( 4 )
__meta__ = {
"_edit_use_anchors_": false
}

[node name="TextureRect" type="TextureRect" parent="."]
anchor_right = 1.0
anchor_bottom = 1.0
texture = ExtResource( 1 )
expand = true

[node name="CenterContainer" type="CenterContainer" parent="."]
anchor_right = 1.0
anchor_bottom = 1.0

[node name="VBoxContainer" type="VBoxContainer" parent="CenterContainer"]
margin_left = 125.0
margin_top = 175.0
margin_right = 898.0
margin_bottom = 425.0

[node name="Label" type="Label" parent="CenterContainer/VBoxContainer"]
margin_right = 773.0
margin_bottom = 164.0
custom_fonts/font = SubResource( 1 )
custom_colors/font_color = Color( 0, 0, 0, 1 )
text = "Game Over!"

[node name="HBoxContainer" type="HBoxContainer" parent="CenterContainer/VBoxContainer"]
margin_top = 168.0
margin_right = 773.0
margin_bottom = 250.0
alignment = 1

[node name="RestartButton" type="TextureButton" parent="CenterContainer/VBoxContainer/HBoxContainer"]
margin_left = 176.0
margin_right = 228.0
margin_bottom = 82.0
texture_normal = ExtResource( 3 )

[node name="Label" type="Label" parent="CenterContainer/VBoxContainer/HBoxContainer"]
margin_left = 232.0
margin_right = 596.0
margin_bottom = 82.0
custom_fonts/font = SubResource( 2 )
custom_colors/font_color = Color( 0, 0, 0, 1 )
text = "Try Again!"

[connection signal="pressed" from="CenterContainer/VBoxContainer/HBoxContainer/RestartButton" to="." method="_on_RestartButton_pressed"]
