[gd_scene load_steps=3 format=2]

[ext_resource path="res://GFX/Environment/spikes_top.png" type="Texture" id=1]
[ext_resource path="res://Hazards/Hazards.gd" type="Script" id=2]

[node name="SpikeTop" type="Area2D"]
modulate = Color( 0.529412, 0, 0, 1 )
collision_layer = 4
script = ExtResource( 2 )

[node name="Sprite" type="Sprite" parent="."]
texture = ExtResource( 1 )

[node name="CollisionPolygon2D" type="CollisionPolygon2D" parent="."]
visible = false
polygon = PoolVector2Array( -33.3573, -26.2917, -46.8362, 26.4251, 47.0587, 26.69, 34.3858, -26.4586 )

[connection signal="body_entered" from="." to="." method="_on_SpikeTop_body_entered"]
